<svg width="18" height="18" viewBox="0 0 18 18" fill="none" xmlns="http://www.w3.org/2000/svg">
<g clip-path="url(#clip0)">
<path d="M0.418158 18C0.317084 18 0.218756 17.96 0.145835 17.8863C0.0497041 17.7891 0.0126253 17.6479 0.0487429 17.5159L1.21892 13.2428C0.490393 11.9254 0.106284 10.4351 0.106833 8.92227C0.108893 4.00246 4.11259 0 9.03199 0C11.4181 0.000961305 13.6601 0.930405 15.3453 2.61681C17.0302 4.30334 17.9577 6.54524 17.957 8.92941C17.9548 13.8494 13.9511 17.8521 9.03199 17.8521C9.03199 17.8521 9.02828 17.8521 9.02814 17.8521C7.59127 17.8515 6.16675 17.5014 4.89838 16.8381L0.51525 17.9875C0.483115 17.9959 0.450431 18 0.418158 18Z" fill="#E5E5E5"/>
<path d="M0.417969 17.6168L1.62976 13.1916C0.882278 11.8965 0.489105 10.4273 0.489655 8.92221C0.491577 4.21361 4.32333 0.382812 9.0318 0.382812C11.3167 0.383774 13.4613 1.27312 15.0741 2.88728C16.6868 4.50145 17.5746 6.64708 17.5738 8.92908C17.5717 13.6375 13.7394 17.4689 9.0318 17.4689C9.03152 17.4689 9.03194 17.4689 9.0318 17.4689H9.02809C7.5985 17.4683 6.19389 17.1098 4.94626 16.4293L0.417969 17.6168ZM5.15596 14.8834L5.41537 15.0371C6.50522 15.6839 7.75478 16.026 9.02905 16.0267H9.0318C12.9449 16.0267 16.1298 12.8423 16.1314 8.92853C16.1321 7.03188 15.3944 5.24838 14.0539 3.90681C12.7133 2.56525 10.9309 1.826 9.03441 1.82518C5.11819 1.82518 1.9334 5.00916 1.93188 8.92276C1.93134 10.2639 2.30652 11.5699 3.01733 12.7001L3.18625 12.9688L2.46884 15.5879L5.15596 14.8834Z" fill="white"/>
<path d="M0.714844 17.3191L1.88475 13.0469C1.16295 11.7966 0.783508 10.3782 0.78392 8.92537C0.785706 4.37978 4.48494 0.681641 9.03012 0.681641C11.2362 0.682602 13.3067 1.54118 14.8633 3.09946C16.4203 4.65773 17.2773 6.72907 17.2765 8.93182C17.2745 13.4776 13.5752 17.1761 9.03053 17.1761C9.03012 17.1761 9.03067 17.1761 9.03053 17.1761H9.02682C7.6468 17.1756 6.29068 16.8292 5.0863 16.1728L0.714844 17.3191Z" fill="#64B161"/>
<path d="M0.417969 17.6168L1.62976 13.1916C0.882278 11.8965 0.489105 10.4273 0.489655 8.92221C0.491577 4.21361 4.32333 0.382812 9.0318 0.382812C11.3167 0.383774 13.4613 1.27312 15.0741 2.88728C16.6868 4.50145 17.5746 6.64708 17.5738 8.92908C17.5717 13.6375 13.7394 17.4689 9.0318 17.4689C9.03152 17.4689 9.03194 17.4689 9.0318 17.4689H9.02809C7.5985 17.4683 6.19389 17.1098 4.94626 16.4293L0.417969 17.6168ZM5.15596 14.8834L5.41537 15.0371C6.50522 15.6839 7.75478 16.026 9.02905 16.0267H9.0318C12.9449 16.0267 16.1298 12.8423 16.1314 8.92853C16.1321 7.03188 15.3944 5.24838 14.0539 3.90681C12.7133 2.56525 10.9309 1.826 9.03441 1.82518C5.11819 1.82518 1.9334 5.00916 1.93188 8.92276C1.93134 10.2639 2.30652 11.5699 3.01733 12.7001L3.18625 12.9688L2.46884 15.5879L5.15596 14.8834Z" fill="white"/>
<path fill-rule="evenodd" clip-rule="evenodd" d="M6.89705 5.35233C6.7372 4.99692 6.56883 4.98978 6.41667 4.9836C6.29225 4.97824 6.14984 4.97852 6.0077 4.97852C5.86543 4.97852 5.63417 5.03208 5.43861 5.24562C5.24292 5.45917 4.69141 5.97553 4.69141 7.02568C4.69141 8.07598 5.45633 9.0907 5.56303 9.23325C5.66974 9.37566 7.0396 11.5996 9.20898 12.4551C11.012 13.1662 11.3788 13.0248 11.7702 12.9892C12.1616 12.9536 13.0329 12.4728 13.2107 11.9745C13.3887 11.4761 13.3887 11.049 13.3353 10.9596C13.2819 10.8708 13.1396 10.8173 12.9262 10.7106C12.7128 10.6039 11.6635 10.0874 11.4678 10.0163C11.2721 9.94502 11.1298 9.90959 10.9875 10.1233C10.8451 10.3367 10.4364 10.8173 10.3119 10.9596C10.1873 11.1023 10.0628 11.1201 9.84935 11.0133C9.63594 10.9063 8.94847 10.6811 8.13301 9.95395C7.49855 9.38829 7.07008 8.68956 6.94552 8.47588C6.8211 8.26247 6.94346 8.157 7.03932 8.04041C7.21194 7.83043 7.50157 7.45291 7.57271 7.31064C7.64384 7.16809 7.60827 7.04354 7.55499 6.93669C7.50157 6.82999 7.0867 5.77448 6.89705 5.35233Z" fill="white"/>
</g>
<defs>
<clipPath id="clip0">
<rect width="18" height="18" fill="white"/>
</clipPath>
</defs>
</svg>
